"64x64"
30 0.021313 384
60 0.030456 269
120 0.037920 216
180 0.039609 207
240 0.139084 59


"128x128"
30 0.024051 1362
60 0.031440 1042
120 0.037264 879
180 0.056082 584
240 0.168748 194


"256x256"
30 0.038426 3411
60 0.045936 2853
120 0.046487 2820
180 0.074640 1756
240 0.178694 733


"512x512"
30 0.055099 9515
60 0.059893 8754
120 0.226516 2315
180 0.210031 2496
240 0.202976 2583


"1024x1024"
30 0.105168 19941
60 0.102361 20488
120 0.160423 13073
180 0.093642 22395
240 0.130887 16023


"2048x2048"
30 0.267230 31391
60 0.163303 51368
120 0.145268 57746
180 0.209153 40107
240 0.163687 51248


"4096x4096"
30 0.745596 45004
60 0.566978 59181
120 0.494041 67918
180 0.479472 69982
240 0.593904 56498


"8192x8192"
30 2.479121 54139
60 1.637376 81971
120 1.526963 87898
180 1.523392 88105
240 1.547558 86729


"16384x16384"
30 9.266579 57936
60 6.054558 88672
120 5.736915 93582
180 5.760430 93200
240 5.813064 92356


