"64x64"
1 0.000783 10463
2 0.001024 8000
4 0.001111 7373
8 0.001507 5436
16 0.004922 1664


"128x128"
1 0.003137 10445
2 0.002237 14648
4 0.001461 22428
8 0.001724 19007
16 0.010703 3062


"256x256"
1 0.012375 10592
2 0.006644 19728
4 0.005364 24436
8 0.007492 17495
16 0.048486 2703


"512x512"
1 0.051649 10151
2 0.026708 19630
4 0.027546 19033
8 0.048405 10831
16 0.215837 2429


"1024x1024"
1 0.206436 10159
2 0.104395 20089
4 0.054011 38828
8 0.029867 70217
16 0.027516 76215


"2048x2048"
1 0.932646 8994
2 0.458048 18314
4 0.246672 34007
8 0.139965 59934
16 0.064774 129506


"4096x4096"
1 5.417007 6194
2 3.045994 11016
4 3.089473 10861
8 2.569831 13057
16 1.440984 23286


"8192x8192"
1 24.077708 5574
2 12.547353 10697
4 10.322510 13002
8 10.207550 13149
16 5.564223 24122


"16384x16384"
1 96.641746 5555
2 49.961791 10746
4 41.196726 13032
8 40.791253 13161
16 19.600861 27390


