64 60 5000 0.168916 242

1024 60 5000 0.603866 17364

2048 60 5000 0.889680 47144

4096 60 5000 3.002931 55869

8192 60 5000 8.619944 77853

16384 60 5000 29.284453 91665

32768 60 5000 116.492171 -92173

64 120 5000 0.279966 146

1024 120 5000 0.747578 14026

2048 120 5000 0.758160 55322

4096 120 5000 2.741757 61191

8192 120 5000 8.558165 78415

16384 120 5000 31.970636 83963

32768 120 5000 112.801887 -95188

64 180 5000 0.302993 135

1024 180 5000 1.794171 5844

2048 180 5000 1.751423 23948

4096 180 5000 4.820619 34803

8192 180 5000 10.741229 62478

16384 180 5000 28.598838 93862

32768 180 5000 120.667018 -88984

64 240 5000 0.335018 122

1024 240 5000 2.233179 4695

2048 240 5000 2.509882 16711

4096 240 5000 2.718237 61721

8192 240 5000 8.767613 76542

16384 240 5000 33.079870 81148

32768 240 5000 140.859139 -76228

64 240 5000 0.328482 125

1024 240 5000 2.344565 4472

2048 240 5000 2.466228 17007

4096 240 5000 2.748381 61044

8192 240 5000 8.966818 74841

16384 240 5000 32.773715 81906

32768 240 5000 141.837978 -75702

